[gd_resource type="EditorSettings" format=2]

[resource]

interface/editor/editor_language = "en"
interface/editor/hidpi_mode = 0
interface/scene_tabs/show_script_button = false
interface/editor/main_font_size = 14
interface/editor/code_font_size = 14
interface/editor/main_font_hinting = 2
interface/editor/code_font_hinting = 2
interface/editor/main_font = ""
interface/editor/code_font = ""
interface/editor/dim_editor_on_dialog_popup = true
interface/editor/dim_amount = 0.6
interface/editor/dim_transition_time = 0.08
interface/editor/separate_distraction_mode = false
interface/editor/save_each_scene_on_quit = true
interface/editor/quit_confirmation = true
interface/theme/preset = 0
interface/theme/icon_and_font_color = 0
interface/theme/base_color = Color( 0.196078, 0.231373, 0.309804, 1 )
interface/theme/accent_color = Color( 0.411765, 0.611765, 0.909804, 1 )
interface/theme/contrast = 0.25
interface/theme/highlight_tabs = false
interface/theme/border_size = 1
interface/theme/use_graph_node_headers = false
interface/theme/additional_spacing = 0
interface/theme/custom_theme = ""
interface/scene_tabs/show_extension = false
interface/scene_tabs/show_thumbnail_on_hover = true
interface/scene_tabs/resize_if_many_tabs = true
interface/scene_tabs/minimum_width = 50
filesystem/directories/autoscan_project_path = ""
filesystem/directories/default_project_path = "~"
filesystem/directories/default_project_export_path = ""
text_editor/theme/color_theme = "Adaptive"
text_editor/theme/line_spacing = 4
text_editor/highlighting/background_color = Color( 0.122549, 0.144608, 0.193627, 1 )
text_editor/highlighting/completion_background_color = Color( 0.196078, 0.231373, 0.309804, 1 )
text_editor/highlighting/completion_selected_color = Color( 1, 1, 1, 0.07 )
text_editor/highlighting/completion_existing_color = Color( 1, 1, 1, 0.14 )
text_editor/highlighting/completion_scroll_color = Color( 1, 1, 1, 0.07 )
text_editor/highlighting/completion_font_color = Color( 0.79902, 0.807843, 0.827451, 1 )
text_editor/highlighting/caret_color = Color( 1, 1, 1, 1 )
text_editor/highlighting/caret_background_color = Color( 0, 0, 0, 1 )
text_editor/highlighting/line_number_color = Color( 0.79902, 0.807843, 0.827451, 0.5 )
text_editor/highlighting/text_color = Color( 0.79902, 0.807843, 0.827451, 1 )
text_editor/highlighting/text_selected_color = Color( 0.0980392, 0.115686, 0.154902, 1 )
text_editor/highlighting/keyword_color = Color( 1, 0.443137, 0.521569, 1 )
text_editor/highlighting/base_type_color = Color( 0.258824, 1, 0.760784, 1 )
text_editor/highlighting/engine_type_color = Color( 0.777647, 1, 0.928235, 1 )
text_editor/highlighting/function_color = Color( 0.341176, 0.701961, 1, 1 )
text_editor/highlighting/member_variable_color = Color( 0.736471, 0.880784, 1, 1 )
text_editor/highlighting/comment_color = Color( 0.79902, 0.807843, 0.827451, 0.5 )
text_editor/highlighting/string_color = Color( 1, 0.92549, 0.629412, 1 )
text_editor/highlighting/number_color = Color( 0.629412, 1, 0.880392, 1 )
text_editor/highlighting/symbol_color = Color( 0.670588, 0.786275, 1, 1 )
text_editor/highlighting/selection_color = Color( 1, 1, 1, 0.14 )
text_editor/highlighting/brace_mismatch_color = Color( 1.5, 0.208, 0.309333, 1.7 )
text_editor/highlighting/current_line_color = Color( 1, 1, 1, 0.07 )
text_editor/highlighting/line_length_guideline_color = Color( 0.988235, 1.06024, 0.327529, 1.2 )
text_editor/highlighting/mark_color = Color( 1.5, 0.208, 0.309333, 0.3 )
text_editor/highlighting/breakpoint_color = Color( 1.5, 0.208, 0.309333, 1.7 )
text_editor/highlighting/code_folding_color = Color( 1, 1, 1, 0.7 )
text_editor/highlighting/word_highlighted_color = Color( 1, 1, 1, 0.07 )
text_editor/highlighting/search_result_color = Color( 1, 1, 1, 0.07 )
text_editor/highlighting/search_result_border_color = Color( 1, 1, 1, 0.7 )
text_editor/highlighting/syntax_highlighting = true
text_editor/highlighting/highlight_all_occurrences = true
text_editor/highlighting/highlight_current_line = true
text_editor/cursor/scroll_past_end_of_file = false
text_editor/indent/type = 0
text_editor/indent/size = 4
text_editor/indent/auto_indent = true
text_editor/indent/convert_indent_on_save = false
text_editor/indent/draw_tabs = true
text_editor/line_numbers/show_line_numbers = true
text_editor/line_numbers/line_numbers_zero_padded = false
text_editor/line_numbers/show_breakpoint_gutter = true
text_editor/line_numbers/code_folding = true
text_editor/line_numbers/show_line_length_guideline = false
text_editor/line_numbers/line_length_guideline_column = 80
text_editor/open_scripts/smooth_scrolling = true
text_editor/open_scripts/v_scroll_speed = 80
text_editor/open_scripts/show_members_overview = true
text_editor/files/trim_trailing_whitespace_on_save = false
text_editor/completion/idle_parse_delay = 2
text_editor/tools/create_signal_callbacks = true
text_editor/files/autosave_interval_secs = 0
text_editor/cursor/block_caret = false
text_editor/cursor/caret_blink = true
text_editor/cursor/caret_blink_speed = 0.65
text_editor/cursor/right_click_moves_caret = true
text_editor/completion/auto_brace_complete = false
text_editor/completion/put_callhint_tooltip_below_current_line = true
text_editor/completion/callhint_tooltip_offset = Vector2( 0, 0 )
text_editor/files/restore_scripts_on_load = true
text_editor/completion/complete_file_paths = true
text_editor/files/maximum_recent_files = 20
docks/scene_tree/start_create_dialog_fully_expanded = false
docks/scene_tree/draw_relationship_lines = false
docks/scene_tree/relationship_line_color = Color( 0.27451, 0.27451, 0.27451, 1 )
editors/grid_map/pick_distance = 5000.0
editors/3d/grid_color = Color( 0.501961, 0.501961, 0.501961, 1 )
editors/3d/default_fov = 70.0
editors/3d/default_z_near = 0.05
editors/3d/default_z_far = 500.0
editors/3d/navigation/navigation_scheme = 0
editors/3d/navigation/zoom_style = 0
editors/3d/navigation/emulate_3_button_mouse = false
editors/3d/navigation/orbit_modifier = 0
editors/3d/navigation/pan_modifier = 1
editors/3d/navigation/zoom_modifier = 4
editors/3d/navigation/warped_mouse_panning = true
editors/3d/navigation_feel/orbit_sensitivity = 0.4
editors/3d/navigation_feel/orbit_inertia = 0.05
editors/3d/navigation_feel/translation_inertia = 0.15
editors/3d/navigation_feel/zoom_inertia = 0.075
editors/3d/navigation_feel/manipulation_orbit_inertia = 0.075
editors/3d/navigation_feel/manipulation_translation_inertia = 0.075
editors/3d/freelook/freelook_inertia = 0.1
editors/3d/freelook/freelook_base_speed = 5.0
editors/3d/freelook/freelook_activation_modifier = 0
editors/3d/freelook/freelook_modifier_speed_factor = 3.0
editors/3d/freelook/freelook_speed_zoom_link = false
editors/2d/guides_color = Color( 0.6, 0, 0.8, 1 )
editors/2d/bone_width = 5
editors/2d/bone_color1 = Color( 1, 1, 1, 0.9 )
editors/2d/bone_color2 = Color( 0.75, 0.75, 0.75, 0.9 )
editors/2d/bone_selected_color = Color( 0.9, 0.45, 0.45, 0.9 )
editors/2d/bone_ik_color = Color( 0.9, 0.9, 0.45, 0.9 )
editors/2d/keep_margins_when_changing_anchors = false
editors/2d/warped_mouse_panning = true
editors/2d/simple_spacebar_panning = false
editors/2d/scroll_to_pan = false
editors/2d/pan_speed = 20
editors/poly_editor/point_grab_radius = 8
editors/poly_editor/show_previous_outline = true
run/window_placement/rect = 1
run/window_placement/rect_custom_position = Vector2( 0, 0 )
run/window_placement/screen = 0
filesystem/on_save/compress_binary_resources = true
filesystem/on_save/save_modified_external_resources = true
filesystem/file_dialog/show_hidden_files = false
filesystem/file_dialog/display_mode = 0
filesystem/file_dialog/thumbnail_size = 64
docks/filesystem/display_mode = 0
docks/filesystem/thumbnail_size = 64
docks/filesystem/always_show_folders = true
editors/animation/autorename_animation_tracks = true
editors/animation/confirm_insert_track = true
editors/animation/onion_layers_past_color = Color( 1, 0, 0, 1 )
editors/animation/onion_layers_future_color = Color( 0, 1, 0, 1 )
docks/property_editor/texture_preview_width = 48
docks/property_editor/auto_refresh_interval = 0.3
text_editor/help/doc_path = ""
text_editor/help/show_help_index = true
filesystem/import/ask_save_before_reimport = false
filesystem/import/pvrtc_texture_tool = ""
filesystem/import/pvrtc_fast_conversion = false
run/auto_save/save_before_running = true
run/output/always_clear_output_on_play = true
run/output/always_open_output_on_play = true
run/output/always_close_output_on_stop = false
filesystem/resources/save_compressed_resources = true
filesystem/resources/auto_reload_modified_images = true
filesystem/import/automatic_reimport_on_sources_changed = true
filesystem/on_save/safe_save_on_backup_then_rename = true
network/debug/remote_host = "127.0.0.1"
network/debug/remote_port = 6007
export/android/adb = "__ADB__"
export/android/jarsigner = "__JARSIGNER__"
export/android/debug_keystore = "__DEBUG_KEYSTORE__"
export/android/debug_keystore_user = "androiddebugkey"
export/android/debug_keystore_pass = "android"
export/android/force_system_user = false
export/android/timestamping_authority_url = ""
export/android/shutdown_adb_on_exit = true
export/uwp/signtool = ""
export/uwp/debug_certificate = ""
export/uwp/debug_password = ""
export/uwp/debug_algorithm = 2
export/windows/rcedit = ""
export/windows/wine = ""
text_editor/help/help_title_font_size = 23
text_editor/help/help_font_size = 15
text_editor/help/help_source_font_size = 14
run/output/font_size = 13
interface/scene_tabs/always_show_close_button = false
interface/editor/show_type_icons = false
interface/editor/capitalize_properties = true
interface/editor/disable_inspector_folding = false
filesystem/file_server/port = 6010
filesystem/file_server/password = ""
editors/3d/manipulator_gizmo_size = 80
editors/3d/manipulator_gizmo_opacity = 0.2
debugger/auto_switch_to_remote_scene_tree = false
debugger/remote_scene_tree_refresh_interval = 1.0
debugger/remote_inspect_refresh_interval = 0.2
debugger/profiler_frame_history_size = 600
debugger/profiler_frame_max_functions = 64
text_editor/files/auto_reload_scripts_on_external_change = true
text_editor/files/auto_reload_and_parse_scripts_on_save = true
text_editor/files/open_dominant_script_on_scene_change = true
text_editor/external/use_external_editor = false
text_editor/external/exec_path = ""
text_editor/open_scripts/script_temperature_enabled = true
text_editor/open_scripts/highlight_current_script = true
text_editor/open_scripts/script_temperature_history_size = 15
text_editor/open_scripts/current_script_background_color = Color( 1, 1, 1, 0.3 )
text_editor/open_scripts/group_help_pages = true
text_editor/open_scripts/sort_scripts_by = 0
text_editor/open_scripts/list_script_names_as = 0
text_editor/external/exec_flags = ""
asset_library/use_threads = true
text_editor/completion/enable_code_completion_delay = true
text_editor/completion/code_complete_delay = 0.3
editors/grid_map/preview_size = 64
editors/tile_map/preview_size = 64
editors/tile_map/palette_item_hseparation = 8
editors/tile_map/show_tile_names = true
editors/tile_map/show_tile_ids = false
editors/tile_map/sort_tiles_by_name = true
editors/tile_map/bucket_fill_preview = true
editors/tile_map/show_tile_info_on_hover = true
editors/tile_map/palette_min_width = 80
editors/grid_map/palette_min_width = 230
editors/3d_gizmos/gizmo_colors/light = Color( 1, 1, 0.2, 1 )
editors/3d_gizmos/gizmo_colors/stream_player_3d = Color( 0.4, 0.8, 1, 1 )
editors/3d_gizmos/gizmo_colors/camera = Color( 0.8, 0.4, 0.8, 1 )
editors/3d_gizmos/gizmo_colors/skeleton = Color( 1, 0.8, 0.4, 1 )
editors/3d_gizmos/gizmo_colors/visibility_notifier = Color( 0.8, 0.5, 0.7, 1 )
editors/3d_gizmos/gizmo_colors/particles = Color( 0.8, 0.7, 0.4, 1 )
editors/3d_gizmos/gizmo_colors/reflection_probe = Color( 0.6, 1, 0.5, 1 )
editors/3d_gizmos/gizmo_colors/gi_probe = Color( 0.5, 1, 0.6, 1 )
editors/3d_gizmos/gizmo_colors/baked_indirect_light = Color( 0.5, 0.6, 1, 1 )
editors/3d_gizmos/gizmo_colors/shape = Color( 0.5, 0.7, 1, 1 )
editors/3d_gizmos/gizmo_colors/joint = Color( 0.5, 0.8, 1, 1 )
editors/3d_gizmos/gizmo_colors/joint_body_a = Color( 0.6, 0.8, 1, 1 )
editors/3d_gizmos/gizmo_colors/joint_body_b = Color( 0.6, 0.9, 1, 1 )
editors/3d_gizmos/gizmo_colors/navigation_edge = Color( 0.5, 1, 1, 1 )
editors/3d_gizmos/gizmo_colors/navigation_edge_disabled = Color( 0.7, 0.7, 0.7, 1 )
editors/3d_gizmos/gizmo_colors/navigation_solid = Color( 0.5, 1, 1, 0.4 )
editors/3d_gizmos/gizmo_colors/navigation_solid_disabled = Color( 0.7, 0.7, 0.7, 0.4 )
editors/3d_gizmos/gizmo_colors/instanced = Color( 0.7, 0.7, 0.7, 0.5 )
shortcuts = [  ]

